…
#get_pvalue(male = female,direction = "both")
salary_in_Null

## Response: salary (numeric)
## Explanatory: gender (factor)
## Null Hypothesis: independence
## # A tibble: 1,000 x 2
##    replicate    stat
##        <int>   <dbl>
##  1         1  3031. 
##  2         2  2543. 
##  3         3  4998. 
##  4         4 -1085. 
##  5         5 -3498. 
##  6         6  -316. 
##  7         7 -5134. 
##  8         8 -1663. 
##  9         9   -43.3
## 10        10 -1349. 
## # ... with 990 more rows
…
